Download Online Imagery Tiles • ceramic
…
The zoom levels were chosen by first reading an automatic level for the extents, and then tweaking the zoom - higher resolution for the imagery, lower resolution for the elevation. This provides a compelling visualization in 3D as the imagery is textured onto the elevation data, using rgl’s mesh3d type and shade3d() function.

Local caching of tiles

A key feature of ceramic is caching, all data is downloaded in a systematic way that is suitable for later re-use. Many tools for imagery services treat the imagery as transient, but here we take control over the raw data itself. All file names match exactly the address URL of the original source data.

There is a helper function to find existing tiles.

aa <- cc_location(loc = cbind(0, 0), buffer = 330000, type = "mapbox.satellite")
#> [1] "https://api.mapbox.com/v4/mapbox.satellite/{zoom}/{x}/{y}.jpg?access_token=pk.eyJ1IjoibWRzdW1uZXIiLCJhIjoiY2lleHM3dDk5MDBzbHM4bTM1bjkyY2kwayJ9.IrUihishnOa8w0JFXhXqZA"
#> Preparing to download: 16 tiles at zoom = 7 from 
#> https://api.mapbox.com/v4/mapbox.satellite/
ceramic_tiles(zoom = 7, type = "mapbox.satellite")
#> # A tibble: 54 × 11
#>    tile_x tile_y  zoom type    version source fullname      xmin    xmax    ymin
#>     <int>  <int> <int> <chr>   <chr>   <chr>  <fs::path>   <dbl>   <dbl>   <dbl>
#>  1     34     50     7 mapbox… v4      api.m… …34/50.jpg -9.39e6 -9.08e6  4.07e6
#>  2     34     51     7 mapbox… v4      api.m… …34/51.jpg -9.39e6 -9.08e6  3.76e6
#>  3     35     50     7 mapbox… v4      api.m… …35/50.jpg -9.08e6 -8.77e6  4.07e6
#>  4     35     51     7 mapbox… v4      api.m… …35/51.jpg -9.08e6 -8.77e6  3.76e6
#>  5     36     50     7 mapbox… v4      api.m… …36/50.jpg -8.77e6 -8.45e6  4.07e6
#>  6     36     51     7 mapbox… v4      api.m… …36/51.jpg -8.77e6 -8.45e6  3.76e6
#>  7     37     50     7 mapbox… v4      api.m… …37/50.jpg -8.45e6 -8.14e6  4.07e6
#>  8     37     51     7 mapbox… v4      api.m… …37/51.jpg -8.45e6 -8.14e6  3.76e6
#>  9     39     67     7 mapbox… v4      api.m… …39/67.jpg -7.83e6 -7.51e6 -1.25e6
#> 10     39     68     7 mapbox… v4      api.m… …39/68.jpg -7.83e6 -7.51e6 -1.57e6
#> # … with 44 more rows, and 1 more variable: ymax <dbl>
…
