…
A key feature of ceramic is *caching*, all data is downloaded in a
systematic way that is suitable for later re-use. Many tools for imagery
services treat the imagery as transient, but here we take control over
the raw data itself. All file names match exactly the address URL of the
original source data.

There is a helper function to find existing
tiles.

``` r
aa <- cc_location(loc = cbind(0, 0), buffer = 330000, type = "mapbox.satellite")
#> Preparing to download: 16 tiles at zoom = 7 from 
#> https://api.mapbox.com/v4/mapbox.satellite/
ceramic_tiles(zoom = 7, type = "mapbox.satellite")
#> # A tibble: 224 x 11
#>    tile_x tile_y  zoom type  version source fullname     xmin   xmax
#>     <int>  <int> <int> <chr> <chr>   <chr>  <fs::path>  <dbl>  <dbl>
#>  1    108     74     7 mapb~ v4      api.m~ C:/Users/~ 1.38e7 1.41e7
#>  2    108     75     7 mapb~ v4      api.m~ C:/Users/~ 1.38e7 1.41e7
#>  3    108     76     7 mapb~ v4      api.m~ C:/Users/~ 1.38e7 1.41e7
#>  4    108     77     7 mapb~ v4      api.m~ C:/Users/~ 1.38e7 1.41e7
#>  5    109     74     7 mapb~ v4      api.m~ C:/Users/~ 1.41e7 1.44e7
#>  6    109     75     7 mapb~ v4      api.m~ C:/Users/~ 1.41e7 1.44e7
#>  7    109     76     7 mapb~ v4      api.m~ C:/Users/~ 1.41e7 1.44e7
#>  8    109     77     7 mapb~ v4      api.m~ C:/Users/~ 1.41e7 1.44e7
#>  9    110     74     7 mapb~ v4      api.m~ C:/Users/~ 1.44e7 1.47e7
#> 10    110     74     7 mapb~ v4      api.m~ C:/Users/~ 1.44e7 1.47e7
#> # ... with 214 more rows, and 2 more variables: ymin <dbl>, ymax <dbl>
```
…
