Get Online Imagery Tiles • ceramic
…
Local caching of tiles

A key feature of ceramic is caching, all data is downloaded in a systematic way that is suitable for later re-use. Many tools for imagery services treat the imagery as transient, but here we take control over the raw data itself. All file names match exactly the address URL of the original source data.

There is a helper function to find existing tiles.

aa <- cc_location(loc = cbind(0, 0), buffer = 330000, type = "mapbox.satellite")
#> Preparing to download: 16 tiles at zoom = 7 from 
#> https://api.mapbox.com/v4/mapbox.satellite/
ceramic_tiles(zoom = 7, type = "mapbox.satellite")
#> # A tibble: 76 x 11
#>    tile_x tile_y  zoom type  version source fullname     xmin   xmax
#>     <int>  <int> <int> <chr> <chr>   <chr>  <fs::path>  <dbl>  <dbl>
#>  1    113     79     7 mapb… v4      api.m… /perm_sto… 1.53e7 1.57e7
#>  2    113     80     7 mapb… v4      api.m… /perm_sto… 1.53e7 1.57e7
#>  3    113     81     7 mapb… v4      api.m… /perm_sto… 1.53e7 1.57e7
#>  4    114     79     7 mapb… v4      api.m… /perm_sto… 1.57e7 1.60e7
#>  5    114     80     7 mapb… v4      api.m… /perm_sto… 1.57e7 1.60e7
#>  6    114     81     7 mapb… v4      api.m… /perm_sto… 1.57e7 1.60e7
#>  7    115     79     7 mapb… v4      api.m… /perm_sto… 1.60e7 1.63e7
#>  8    115     80     7 mapb… v4      api.m… /perm_sto… 1.60e7 1.63e7
#>  9    115     81     7 mapb… v4      api.m… /perm_sto… 1.60e7 1.63e7
#> 10    116     79     7 mapb… v4      api.m… /perm_sto… 1.63e7 1.66e7
#> # … with 66 more rows, and 2 more variables: ymin <dbl>, ymax <dbl>
…
